1 10 20
100 200 125
201 210 89
900 1000 174
586077 885497 525
629219 563748 509
574001 357910 470
577672 187863 470
905309 770470 525
243809 171827 443
712342 105928 509
249863 618677 470
115955 607916 470
803209 40593 509
9506 114120 354
850965 148340 525
46322 676042 509
73010 332949 443
743518 693934 504
385174 181996 443
288224 105276 443
827065 198230 509
131300 164174 383
349288 695412 509
512179 741255 509
902480 144010 525
636045 574389 509
37080 937685 525
64487 787117 509
290976 164559 443
853635 380481 525
690682 42100 509
692168 170917 509
734206 626728 504
224535 458755 449
347432 379239 423
877194 643434 525
924109 250282 525
874675 626877 525
940107 310147 525
330595 780489 509
775392 595428 509
895590 337320 525
150535 388108 443
791317 584967 509
396242 844173 525
111240 792503 509
796172 96652 509
23264 597550 470
984582 487475 525
996008 147309 525
773636 811769 468
754840 159450 509
956222 924636 507
452058 813789 509
554746 16248 470
800191 16011 509
17713 811852 509
184502 529323 470
995272 192538 525
521317 910162 525
558339 71401 470
486874 793822 509
764727 960507 525
363474 511068 449
195660 520162 470
798701 307137 509
181484 836136 509
153113 845160 525
333395 46478 443
230030 319983 443
948307 173176 525
188924 129942 383
420579 352261 449
467938 60224 449
944160 494494 525
396579 251686 441
720470 979923 525
3546 391834 443
920838 334493 525
99311 299140 443
267496 784575 509
419227 762404 509
578723 242626 470
256280 188329 443
679261 230192 509
94319 121811 354
655325 48516 509
710570 847996 525
30756 209250 383
321607 727125 509
629628 314793 509
433567 189822 449
201855 639778 509
715340 623319 509
202929 779012 509
574179 768121 509
2701 476653 449
28926 819079 509
793118 644711 504
455490 168949 449
444133 994121 525
384159 363542 423
978438 799454 525
988046 72645 525
493008 432819 444
89650 456080 449
14286 623051 470
602856 733585 509
330831 909315 525
554088 113357 470
657852 519748 509
122090 646021 509
292070 393629 441
309950 890880 525
608241 418243 470
714144 327150 509
10718 900461 525
626132 360107 470
935981 236279 525
681420 765243 504
61781 685578 509
534990 994076 525
96199 617785 470
999843 13634 525
643111 641792 416
661602 389050 509
195111 258553 443
281304 714396 509
811669 660467 504
86991 561984 470
890262 271684 525
805224 325766 509
720869 185576 509
750902 806794 468
832294 835778 388
795596 4394 509
233940 981375 525
965060 204315 525
287590 839808 525
604631 94660 470
323356 673919 509
80675 926353 525
647559 110333 509
760835 145976 509
121922 621950 470
297781 182944 443
689433 691282 336
615718 110705 470
418841 493861 444
804174 107113 509
641717 654911 416
852125 465653 525
918085 897761 476
211129 714940 509
507269 29211 449
33924 219179 386
377259 654275 509
444993 742859 509
191194 640016 509
896291 119969 525
850227 71149 525
891068 353533 525
246856 877233 525
603419 537887 452
229791 845483 525
748224 25405 509
116396 731509 509
652926 662288 429
626537 307264 509
350561 209894 443
44308 682104 509
902562 495634 525
251871 201090 443
735725 355162 509
206990 261324 443
999991 547044 525
526320 535353 377
22602 439159 449
558607 830716 509
411811 491556 444
968077 338413 525
53851 293967 443
886858 563159 525
467281 101492 449
296992 620976 470
542269 996981 525
63315 760164 509
887997 519800 525
280307 501065 449
676434 17270 509
209209 492170 449
155675 291500 443
57414 211424 383
179522 907249 525
258723 725160 509
861231 85701 525
794403 822875 468
462792 924449 525
224850 499087 449
240187 920401 525
539878 32930 470
506344 118707 449
762637 556074 509
